Place,Name,BirthYear,Country,BodyweightKg,Bench1Kg,Bench2Kg,Bench3Kg,Best3BenchKg,TotalKg,WeightClassKg,Division,Event,Sex,Equipment
1,Mikael Bernard,1970,France,64.4,200,-205,-210,200,200,66,Masters 1,B,M,Single-ply
2,Olivier Waymel,1966,France,64.7,185,192.5,-202.5,192.5,192.5,66,Masters 1,B,M,Single-ply
3,Oleksandr Chernyshov,1966,Ukraine,65.75,165,170,175,175,175,66,Masters 1,B,M,Single-ply
4,Francisco Rodríguez Gutiérrez,1969,Spain,65.7,140,150,-157.5,150,150,66,Masters 1,B,M,Single-ply
1,Henrikki Syrjälä,1971,Finland,73.5,190,195,197.5,197.5,197.5,74,Masters 1,B,M,Single-ply
2,Bartosz Zelazko,1973,Poland,73.7,-190,190,-200,190,190,74,Masters 1,B,M,Single-ply
3,Jaime Mariñosa Iglesias,1975,Spain,73.4,170,175,-177.5,175,175,74,Masters 1,B,M,Single-ply
DQ,Rafal Szendera,1971,Poland,73.75,-175,-175,-177.5,,,74,Masters 1,B,M,Single-ply
1,Cyril Pinguet,1972,France,81.8,-230,230,240,240,240,83,Masters 1,B,M,Single-ply
2,Alexey Neveykov,1966,Russia,80.3,215,225,235,235,235,83,Masters 1,B,M,Single-ply
3,Tomi Vikla,1970,Finland,82.8,-220,220,-237.5,220,220,83,Masters 1,B,M,Single-ply
4,Fabrice Bertin,1967,France,82.65,207.5,212.5,-220,212.5,212.5,83,Masters 1,B,M,Single-ply
5,Jani Sundholm,1974,Finland,82.85,200,-210,-215,200,200,83,Masters 1,B,M,Single-ply
6,Ove Östby,1974,Sweden,82.4,180,190,-200,190,190,83,Masters 1,B,M,Single-ply
7,Martin Smith,1973,UK,82.05,180,-187.5,-190,180,180,83,Masters 1,B,M,Single-ply
8,Jesús Ruíz Ortiz,1972,Spain,80.5,150,-165,-165,150,150,83,Masters 1,B,M,Single-ply
DQ,Andreas Poehls,1968,Germany,79,-200,-200,-205,,,83,Masters 1,B,M,Single-ply
1,Thomas Wetzstein,1974,Austria,90.75,252.5,262.5,265,265,265,93,Masters 1,B,M,Single-ply
2,Grzegorz Nocek,1973,Poland,90.3,-260,-260,262.5,262.5,262.5,93,Masters 1,B,M,Single-ply
3,Michel Marneur,1968,France,92.1,240,250,-265,250,250,93,Masters 1,B,M,Single-ply
4,Alf-Ivar Hellerud,1969,Norway,91.2,230,-240,-250,230,230,93,Masters 1,B,M,Single-ply
5,Henrik Bo Jensen,1967,Denmark,92,210,217.5,-222.5,217.5,217.5,93,Masters 1,B,M,Single-ply
6,Jörgen Forslund,1973,Sweden,93,215,-222.5,-222.5,215,215,93,Masters 1,B,M,Single-ply
7,Robert Dawidowicz,1972,Sweden,92.65,-205,205,-220,205,205,93,Masters 1,B,M,Single-ply
8,Hans-Ulrich Sickert,1968,Germany,92.65,-180,180,-190,180,180,93,Masters 1,B,M,Single-ply
1,Khaled Ghazal,1972,Czechia,104.75,260,267.5,270,270,270,105,Masters 1,B,M,Single-ply
2,Ronny Olaisen,1971,Norway,102.75,257.5,262.5,267.5,267.5,267.5,105,Masters 1,B,M,Single-ply
3,Martin Green,1974,UK,104.25,250,-255,-265,250,250,105,Masters 1,B,M,Single-ply
4,Sven Stecklina,1974,Germany,102.85,232.5,240,-250,240,240,105,Masters 1,B,M,Single-ply
5,Juha Pohjonen,1966,Finland,104.6,230,-237.5,-252.5,230,230,105,Masters 1,B,M,Single-ply
6,Andres Külaviir,1973,Estonia,103.85,217.5,-225,227.5,227.5,227.5,105,Masters 1,B,M,Single-ply
7,Jan Kuehl,1971,Germany,102.05,-220,-220,225,225,225,105,Masters 1,B,M,Single-ply
8,Sangheet Dhillon,1971,UK,102.8,210,217.5,-225,217.5,217.5,105,Masters 1,B,M,Single-ply
9,Mats Rindemark,1970,Sweden,104.1,200,-220,-220,200,200,105,Masters 1,B,M,Single-ply
DQ,Viacheslav Petrov,1971,Ukraine,104.75,-245,-245,-245,,,105,Masters 1,B,M,Single-ply
1,Jarmo Myller,1968,Finland,118.8,-300,300,305,305,305,120,Masters 1,B,M,Single-ply
2,Markus Larsson,1974,Sweden,117.9,295,302.5,-307.5,302.5,302.5,120,Masters 1,B,M,Single-ply
3,Zbyněk Krejča,1974,Czechia,118.7,295,302.5,-307.5,302.5,302.5,120,Masters 1,B,M,Single-ply
4,Lasse Leinonen,1973,Finland,119.6,300,-305,-305,300,300,120,Masters 1,B,M,Single-ply
5,Olav Kompelien,1972,Norway,118.55,292.5,-300,-302.5,292.5,292.5,120,Masters 1,B,M,Single-ply
6,Markus Karner,1970,Austria,118.85,285,-310,-310,285,285,120,Masters 1,B,M,Single-ply
7,Aleksejs Agadzanjans,1975,Latvia,114.75,255,260,265,265,265,120,Masters 1,B,M,Single-ply
8,János Cserna,1968,Hungary,117.95,245,255,-262.5,255,255,120,Masters 1,B,M,Single-ply
9,Petar Antic,1968,Germany,118.35,250,-260,-260,250,250,120,Masters 1,B,M,Single-ply
DQ,Conny Blomgren,1968,Sweden,118.9,-280,-280,-280,,,120,Masters 1,B,M,Single-ply
DQ,Charles Duval,1972,France,119.75,-290,-290,-302.5,,,120,Masters 1,B,M,Single-ply
1,Ove Lehto,1972,Finland,144.6,340,355,365,365,365,120+,Masters 1,B,M,Single-ply
2,Kenneth Sandvik,1975,Finland,141.1,340,355,-365,355,355,120+,Masters 1,B,M,Single-ply
3,Jaroslav Šoukal,1972,Czechia,163.8,-325,330,-345,330,330,120+,Masters 1,B,M,Single-ply
4,Jérome Guidez,1974,France,143.45,310,-325,-330,310,310,120+,Masters 1,B,M,Single-ply
5,Robert Blom,1966,Sweden,131.4,280,290,292.5,292.5,292.5,120+,Masters 1,B,M,Single-ply
6,Kaido Leesmann,1969,Estonia,128.3,290,-305,-305,290,290,120+,Masters 1,B,M,Single-ply
7,Gert Koovit,1973,Estonia,130.1,240,-250,255,255,255,120+,Masters 1,B,M,Single-ply
8,Jan Vestergaard,1966,Denmark,126.85,-205,205,-225,205,205,120+,Masters 1,B,M,Single-ply
1,Savelii Pavlov,1957,Russia,58.55,110,122.5,-125,122.5,122.5,59,Masters 2,B,M,Single-ply
1,Tahvo Jauhojärvi,1961,Finland,61.6,137.5,-145,-145,137.5,137.5,66,Masters 2,B,M,Single-ply
2,Ivars Kertjānis,1961,Latvia,64.5,132.5,-140,-140,132.5,132.5,66,Masters 2,B,M,Single-ply
3,Frank Wunderlich,1964,Germany,65.2,117.5,120,122.5,122.5,122.5,66,Masters 2,B,M,Single-ply
1,Erkki Rajala,1962,Finland,73.5,200,-210.5,-213,200,200,74,Masters 2,B,M,Single-ply
2,Vasilii Motovilnik,1957,Russia,73.35,180,187.5,-200,187.5,187.5,74,Masters 2,B,M,Single-ply
3,Eric Verhaege,1963,France,72.85,160,165,-187.5,165,165,74,Masters 2,B,M,Single-ply
4,Grzegorz Leski,1958,Poland,73.45,135,-145,145,145,145,74,Masters 2,B,M,Single-ply
5,Pauli Linna,1957,Finland,73.6,105,115,-137.5,115,115,74,Masters 2,B,M,Single-ply
1,Jukka Saunamäki,1961,Sweden,81.9,200,205,-216,205,205,83,Masters 2,B,M,Single-ply
2,Tomas Ring,1960,Sweden,82.7,195,200,202.5,202.5,202.5,83,Masters 2,B,M,Single-ply
3,Axel Gent,1963,Germany,81.15,-200,200,-205,200,200,83,Masters 2,B,M,Single-ply
4,Stig Björkqvist,1960,Finland,82.2,192.5,195,200,200,200,83,Masters 2,B,M,Single-ply
5,Ingo Woschny,1965,Germany,79.7,140,150,155,155,155,83,Masters 2,B,M,Single-ply
6,William Dadley,1964,UK,79.37,135,145,150,150,150,83,Masters 2,B,M,Single-ply
DQ,Patrick LeBlevennec,1963,France,82.6,-190,-190,-202.5,,,83,Masters 2,B,M,Single-ply
1,Svein-Olav Farstad,1965,Norway,92.35,247.5,-252.5,255,255,255,93,Masters 2,B,M,Single-ply
2,Frans van der Putten,1962,Netherlands,92.3,250,252.5,-257.5,252.5,252.5,93,Masters 2,B,M,Single-ply
3,Uwe Hering,1963,Germany,92.15,220,230,-240,230,230,93,Masters 2,B,M,Single-ply
4,Ronald Bengtsson,1959,Sweden,90.9,195,-200,-200,195,195,93,Masters 2,B,M,Single-ply
5,Glyn Belsher,1958,UK,91.05,120,-127.5,130,130,130,93,Masters 2,B,M,Single-ply
DQ,Seppo Norpila,1963,Finland,91.8,-187.5,-187.5,-187.5,,,93,Masters 2,B,M,Single-ply
1,Mariusz Hadrysiak,1961,Poland,104.95,265,275,285,285,285,105,Masters 2,B,M,Single-ply
2,Juha Lehto,1964,Finland,100.75,235,-242.5,-250,235,235,105,Masters 2,B,M,Single-ply
3,Frank Schulze,1961,Germany,97.55,-200,-200,200,200,200,105,Masters 2,B,M,Single-ply
4,Kalev Martsepp,1959,Estonia,101.35,-190,190,195,195,195,105,Masters 2,B,M,Single-ply
5,Paul Hammond,1963,UK,102.55,-180,-180,192.5,192.5,192.5,105,Masters 2,B,M,Single-ply
6,Cyril Gosteli,1965,Switzerland,104.8,155,175,-192.5,175,175,105,Masters 2,B,M,Single-ply
1,Pavlo Mogylnikov,1964,Ukraine,119.85,255,260,-262.5,260,260,120,Masters 2,B,M,Single-ply
2,Wieslaw Dominik,1965,Poland,109.55,242.5,-250,-260,242.5,242.5,120,Masters 2,B,M,Single-ply
3,Christophe Zehnder,1965,France,117.75,230,240,-245,240,240,120,Masters 2,B,M,Single-ply
4,Jiří Krčmář,1962,Czechia,110.2,225,-232.5,-240,225,225,120,Masters 2,B,M,Single-ply
5,Yves Florelius,1963,Norway,106.5,210,-220,-225,210,210,120,Masters 2,B,M,Single-ply
6,Rolf Faass,1965,Germany,113.15,185,-192.5,-192.5,185,185,120,Masters 2,B,M,Single-ply
DQ,Tapani Laitala,1963,Finland,112.6,-225,-225,-227.5,,,120,Masters 2,B,M,Single-ply
DQ,Yury Kivilev,1959,Russia,118.05,-242.5,-245,-245,,,120,Masters 2,B,M,Single-ply
1,John Christensen,1961,Denmark,133.8,-290,-295,295,295,295,120+,Masters 2,B,M,Single-ply
2,Patrice Lefebvre,1962,France,122.6,240,-250,-272.5,240,240,120+,Masters 2,B,M,Single-ply
3,Bernd Kerschbaumer,1965,Austria,128.8,200,212.5,-242.5,212.5,212.5,120+,Masters 2,B,M,Single-ply
1,Jevgenijs Vorobjovs,1953,Latvia,57.6,102.5,-107.5,107.5,107.5,107.5,59,Masters 3,B,M,Single-ply
2,Seppo Flink,1953,Finland,58.7,92.5,95,97.5,97.5,97.5,59,Masters 3,B,M,Single-ply
3,Alexander Moiseev,1954,Belarus,57.7,95,-100,-105,95,95,59,Masters 3,B,M,Single-ply
1,Claude Sitruk,1950,France,64.45,140,147.5,-155,147.5,147.5,66,Masters 3,B,M,Single-ply
2,Guy Laurent,1950,France,65.15,120,125,127.5,127.5,127.5,66,Masters 3,B,M,Single-ply
3,Markku Kemppainen,1949,Finland,65.85,-117.5,117.5,127.5,127.5,127.5,66,Masters 3,B,M,Single-ply
4,Birger Sundstøl,1954,Norway,65.15,102.5,107.5,110,110,110,66,Masters 3,B,M,Single-ply
1,Michel Dernoncourt,1946,France,72.75,-147.5,147.5,150,150,150,74,Masters 3,B,M,Single-ply
2,Mihkel Laas,1954,Estonia,73.5,140,145,150,150,150,74,Masters 3,B,M,Single-ply
3,Hannu Lavonius,1953,Finland,70.05,142.5,145,-147.5,145,145,74,Masters 3,B,M,Single-ply
DQ,Antero Kauranen,1948,Finland,72.95,-140,-140,-145,,,74,Masters 3,B,M,Single-ply
1,Nikolay Volkov,1951,Russia,81.3,175,180,185,185,185,83,Masters 3,B,M,Single-ply
2,Miroslav Fugiel,1955,Poland,82.4,172.5,177.5,-182.5,177.5,177.5,83,Masters 3,B,M,Single-ply
3,Janis Lasmanis,1955,Latvia,75.55,160,-170,-172.5,160,160,83,Masters 3,B,M,Single-ply
4,Gerhard Baumeister,1952,Germany,82.55,-160,-160,160,160,160,83,Masters 3,B,M,Single-ply
5,Alain Collard,1952,France,80.85,145,150,-152.5,150,150,83,Masters 3,B,M,Single-ply
6,Alain Delbeck,1954,France,81.75,140,-147.5,-147.5,140,140,83,Masters 3,B,M,Single-ply
DQ,Reima Häkkinen,1950,Finland,81.5,-165,-165,-165,,,83,Masters 3,B,M,Single-ply
1,Stanislaw Mentel,1954,Poland,92.55,-215,215,-225,215,215,93,Masters 3,B,M,Single-ply
2,Arne Boe Kjell,1952,Norway,89.75,200,-215,-215,200,200,93,Masters 3,B,M,Single-ply
3,Ilkka Launonen,1954,Finland,91.3,187.5,195,-202.5,195,195,93,Masters 3,B,M,Single-ply
4,Jean-Pierre Aymon,1954,Switzerland,92.85,165,-175,-175,165,165,93,Masters 3,B,M,Single-ply
5,Laurent Durocher,1952,France,90.85,150,160,-165,160,160,93,Masters 3,B,M,Single-ply
1,Björn Iversen,1955,Sweden,104,220,-227.5,-235.5,220,220,105,Masters 3,B,M,Single-ply
2,Leif Sydengen,1955,Norway,100.6,190,195,-197.5,195,195,105,Masters 3,B,M,Single-ply
3,Alfred Neumaier,1953,Austria,100.85,195,-200,-200,195,195,105,Masters 3,B,M,Single-ply
4,Helmut Reimann,1951,Germany,102.25,195,-200,-200,195,195,105,Masters 3,B,M,Single-ply
5,Harri Tirronen,1953,Finland,103.25,185,-192.5,-197.5,185,185,105,Masters 3,B,M,Single-ply
6,Kenneth Mattsson,1949,Sweden,100.15,165,170,-180,170,170,105,Masters 3,B,M,Single-ply
1,Vidar Ringvold,1955,Norway,108.05,-210,210,217.5,217.5,217.5,120,Masters 3,B,M,Single-ply
2,Allan Fuglsang,1950,Denmark,109.55,182.5,187.5,-212.5,187.5,187.5,120,Masters 3,B,M,Single-ply
3,Robert Øren,1950,Norway,107.2,-175,-175,175,175,175,120,Masters 3,B,M,Single-ply
4,Franz Mracek,1947,Austria,110,155,165,170,170,170,120,Masters 3,B,M,Single-ply
5,Sven-Erik Wallin,1951,Sweden,116.5,160,-167.5,-170,160,160,120,Masters 3,B,M,Single-ply
DD,Wojciech Grabowski,1952,Poland,106,-225,-240,-250,,,120,Masters 3,B,M,Single-ply
1,Dainis Reinholds,1951,Latvia,122.2,-240.5,-240.5,240.5,240.5,240.5,120+,Masters 3,B,M,Single-ply
2,Karl-Heinz May,1953,Germany,123.35,185,192.5,-200,192.5,192.5,120+,Masters 3,B,M,Single-ply
3,Raul Randmäe,1948,Estonia,141.45,170,-187.5,-195,170,170,120+,Masters 3,B,M,Single-ply
1,Pierre Gallart,1944,France,58.45,100,115,-120.5,115,115,59,Masters 4,B,M,Single-ply
DQ,Boleslaw Maka,1942,Poland,73.4,-145,-145,-150.5,,,74,Masters 4,B,M,Single-ply
1,Alex Lee,1944,UK,78.1,147.5,150,-155.5,150,150,83,Masters 4,B,M,Single-ply
2,Daniel Reybrouck,1942,Belgium,81.55,125,-150,-156.5,125,125,83,Masters 4,B,M,Single-ply
3,Horst Lorenz,1940,Germany,75.9,120,-125,-125,120,120,83,Masters 4,B,M,Single-ply
1,Seppo Komppa,1945,Finland,91.6,145,152.5,-160,152.5,152.5,93,Masters 4,B,M,Single-ply
2,Hans Jørgen Jørgensen,1944,Denmark,88.2,150,-155,-155,150,150,93,Masters 4,B,M,Single-ply
3,Lucien Verne,1944,France,87.85,125,130,135,135,135,93,Masters 4,B,M,Single-ply
4,Klas Helén,1942,Finland,90.35,110,-115,-115,110,110,93,Masters 4,B,M,Single-ply
1,Matti Silvander,1944,Finland,102.55,175,182.5,193,193,193,105,Masters 4,B,M,Single-ply
2,Peer Bjaaland,1942,Norway,93.1,137.5,142.5,145,145,145,105,Masters 4,B,M,Single-ply
3,Adolf Rohrbacher,1938,Austria,93.45,-115,115,127.5,127.5,127.5,105,Masters 4,B,M,Single-ply
4,Mihkel Laurits,1944,Estonia,98,127.5,-140,-145,127.5,127.5,105,Masters 4,B,M,Single-ply
1,Christer Nylund,1944,Finland,108.5,170,177.5,-180.5,177.5,177.5,120,Masters 4,B,M,Single-ply
2,Hans Ring,1945,Sweden,118.45,160,172.5,-181,172.5,172.5,120,Masters 4,B,M,Single-ply
1,Valdis Alksnitis,1941,Latvia,138.05,180,-202.5,-202.5,180,180,120+,Masters 4,B,M,Single-ply
1,Nathalie Feraud,1967,France,46.9,82.5,-90,-90,82.5,82.5,47,Masters 1,B,F,Single-ply
1,Marcela Sandvik,1974,Finland,51.5,110,115,120.5,120.5,120.5,52,Masters 1,B,F,Single-ply
2,Magdolna Petróczki,1968,Hungary,51.25,87.5,92.5,-95,92.5,92.5,52,Masters 1,B,F,Single-ply
1,Jadwiga Radwanska,1975,Poland,56,-105,105,110,110,110,57,Masters 1,B,F,Single-ply
2,Ann Kristin Olsen,1967,Norway,56.45,100,107.5,-110,107.5,107.5,57,Masters 1,B,F,Single-ply
3,Mervi Sirkiä,1972,Finland,54.7,90,92.5,-105,92.5,92.5,57,Masters 1,B,F,Single-ply
4,Véronique Descours,1971,France,56.35,85,-90,-90,85,85,57,Masters 1,B,F,Single-ply
1,Isabelle Iliev,1967,France,61.85,127.5,-132.5,132.5,132.5,132.5,63,Masters 1,B,F,Single-ply
2,Claudia Narovnigg,1972,Austria,62.45,125,-130,130,130,130,63,Masters 1,B,F,Single-ply
3,Charlotte Nielsen,1972,Finland,63,95,100,105,105,105,63,Masters 1,B,F,Single-ply
4,Svetlana Bolshakova,1975,Russia,61.5,80,-90,-100,80,80,63,Masters 1,B,F,Single-ply
1,Satu Luoto,1969,Finland,67.05,97.5,100,102.5,102.5,102.5,72,Masters 1,B,F,Single-ply
2,Hannele Syrjälä,1973,Finland,63.45,87.5,92.5,95,95,95,72,Masters 1,B,F,Single-ply
3,Annelie Izindre,1972,Sweden,65.45,90,-95,-95,90,90,72,Masters 1,B,F,Single-ply
4,Wendie Kirkland,1972,UK,70.35,82.5,90,-92.5,90,90,72,Masters 1,B,F,Single-ply
5,Siret Sugis,1972,Estonia,65.6,72.5,-77.5,-77.5,72.5,72.5,72,Masters 1,B,F,Single-ply
6,Iuliia Koshurina,1968,Russia,70.15,70,-77.5,-80,70,70,72,Masters 1,B,F,Single-ply
1,Eva Engskar,1973,Norway,83.55,-150,150,-160,150,150,84,Masters 1,B,F,Single-ply
2,Dorota Szczepanik,1969,Poland,83.05,135,-145,-150,135,135,84,Masters 1,B,F,Single-ply
3,Joanna Linna,1974,Finland,83.35,115,120,-127.5,120,120,84,Masters 1,B,F,Single-ply
4,Stéphanie Bastien,1974,France,78.9,105,115,-122.5,115,115,84,Masters 1,B,F,Single-ply
5,Angelique Dalia,1972,France,76.35,100,105,-115,105,105,84,Masters 1,B,F,Single-ply
6,Alena Krčmářová,1975,Czechia,77.95,90,-97.5,-100,90,90,84,Masters 1,B,F,Single-ply
1,Sandra Lönn,1974,Sweden,111.2,180,200,210,210,210,84+,Masters 1,B,F,Single-ply
2,Piia Valkonen,1973,Finland,90.8,110,120,-130,120,120,84+,Masters 1,B,F,Single-ply
3,Imrene Csongradi,1966,Hungary,84.25,50,70,-80,70,70,84+,Masters 1,B,F,Single-ply
1,Sandra Carli,1961,Netherlands,49.85,77.5,-82.5,82.5,82.5,82.5,52,Masters 2,B,F,Single-ply
2,Eira Pajuharju,1964,Finland,51.65,65,67.5,70,70,70,52,Masters 2,B,F,Single-ply
DQ,Christine Lesellier,1963,France,49.65,-87.5,-87.5,-87.5,,,52,Masters 2,B,F,Single-ply
1,Daiva Zaroviene,1965,Lithuania,56.35,105,112.5,-117.5,112.5,112.5,57,Masters 2,B,F,Single-ply
2,Irina Bekhtereva,1959,Russia,55.75,75,-82.5,-82.5,75,75,57,Masters 2,B,F,Single-ply
3,Pia Kring,1957,Germany,55.55,60,-80,-82.5,60,60,57,Masters 2,B,F,Single-ply
1,Tarja Uppala,1965,Finland,62.6,105,-110,-115.5,105,105,63,Masters 2,B,F,Single-ply
2,Anja Keränen,1959,Sweden,62.8,90,92.5,-107.5,92.5,92.5,63,Masters 2,B,F,Single-ply
3,Line Coiffard,1958,France,59.5,80,-90,90,90,90,63,Masters 2,B,F,Single-ply
4,Evelyne Herbin,1956,France,61.95,85,-90,90,90,90,63,Masters 2,B,F,Single-ply
1,Regina Haas,1962,Germany,69.65,117.5,-120,-120,117.5,117.5,72,Masters 2,B,F,Single-ply
2,Ursula Haeuser,1960,Germany,70.35,92.5,95,-100,95,95,72,Masters 2,B,F,Single-ply
3,Aline Leroy,1962,France,67.35,85,87.5,90,90,90,72,Masters 2,B,F,Single-ply
4,Heli Valtonen,1961,Finland,71.1,80,85,-92.5,85,85,72,Masters 2,B,F,Single-ply
5,Seija Skogman,1965,Finland,68.85,60,65,70,70,70,72,Masters 2,B,F,Single-ply
1,Ursula Forys,1965,Poland,78,115,120,122.5,122.5,122.5,84,Masters 2,B,F,Single-ply
2,Merja Mynttinen,1958,Finland,83.05,117.5,120,122.5,122.5,122.5,84,Masters 2,B,F,Single-ply
1,Leila Duhem,1963,France,99.95,-135,135,145,145,145,84+,Masters 2,B,F,Single-ply
2,Sylvia Wunderlich,1965,Germany,86.75,105,-110,-110,105,105,84+,Masters 2,B,F,Single-ply
1,Pirjo Kemppainen,1951,Finland,46.65,30,-35,-35,30,30,47,Masters 3,B,F,Single-ply
1,Aira Knutars,1954,Finland,51.1,70,75,-77.5,75,75,52,Masters 3,B,F,Single-ply
1,Irmeli Vaulakorpi,1954,Finland,56.1,62.5,67.5,70,70,70,57,Masters 3,B,F,Single-ply
2,Andrée Duboux,1946,France,55.3,42.5,-55,55,55,55,57,Masters 3,B,F,Single-ply
1,Anita Thimm,1950,Germany,60.7,60,65,-70,65,65,63,Masters 3,B,F,Single-ply
1,Marie Christine Liege,1955,France,68.45,75,-80,-80,75,75,72,Masters 3,B,F,Single-ply
2,Maritta Jaurola,1950,Finland,68.4,67.5,70,-75,70,70,72,Masters 3,B,F,Single-ply
1,Martine Laurent,1951,France,76.35,50,57.5,-62.5,57.5,57.5,84,Masters 3,B,F,Single-ply
1,Tiiu Kimber,1948,Estonia,91.55,60,75,80,80,80,84+,Masters 3,B,F,Single-ply
1,Françoise Heligon,1943,France,49.4,57.5,-60.5,-60.5,57.5,57.5,52,Masters 4,B,F,Single-ply
1,Adina Hyková,1943,Czechia,62.4,70,78,-80,78,78,63,Masters 4,B,F,Single-ply
