Name,Birthday
Andrey Malanichev,1977-01-10
Andy Bolton,1970-01-22
Anna Khudayarov,1988-01-24
Benedikt Magnússon,1983-06-04
Bev Francis,1955-02-15
Bill Kazmaier,1953-12-30
Dave Waddington,1952-05-10
David Ricks,1959-07-27
Don Reinhoudt,1945-03-06
Doyle Kenady,1948-08-29
Ed Coan,1963-07-24
Ellen Stein,1953-02-21
Ernie Lilliebridge Jr,1987-12-13
Fred Hatfield,1942-10-21
Gemma Lucas,1982-09-08
Gene Bell,1956-09-08
Hideaki Inaba,1944-01-13
Jennifer Millican,1983-01-25
Jezza Uepa,1980-04-13
Jo Whiteley,1970-03-16
Kadie Crichton,1992-11-27
Kevin Oak,1986-05-09
Konstantīn Konstantīnovs,1978-06-06
Lamar Gant,1957-08-11
Larry Pacifico,1946-01-17
Larry Williams #1,1994-12-03
Manuela Bakker,1977-04-08
Marianna Gasparyan,1989-02-25
Mark Henry,1971-06-12
Melvin West,1977-04-27
Mike Bridges,1957-02-01
Precious McKenzie,1936-06-06
Rickey Dale Crain,1953-02-18
Rob Hall,1989-01-18
Steve Goggins,1963-12-15
Tee Cummins,1992-08-23
Terence Todd,1938-01-01
Trystan Oakley,1996-10-22
Vikki Traugot,1962-08-29
Vince Anello,1947-09-02
Vladislav Alhazov,1977-11-14
Zahir Khudayarov,1983-07-18
