Place,WeightClassKg,Name,Equipment,Team,BodyweightKg,Squat1Kg,Squat2Kg,Squat3Kg,Best3SquatKg,Bench1Kg,Bench2Kg,Bench3Kg,Best3BenchKg,Deadlift1Kg,Deadlift2Kg,Deadlift3Kg,Best3DeadliftKg,TotalKg,Division,Sex,Event
1,63,Emilie Fondenes,Raw,Bergen SK,57.86,65,67.5,-72.5,67.5,35,37.5,-40,37.5,70,75,80,80.0,185,Teen 14-18,F,SBD
1,63,Kristine Røgelstad,Raw,Odin SK,61.91,92.5,100,105,105.0,62.5,65,67.5,67.5,100,110,117.5,117.5,290,Junior 19-23,F,SBD
2,63,Tiril Eilertsen,Raw,Sogndal IL,62.18,95,105,-107.5,105.0,45,52.5,-57.5,52.5,100,112.5,115,115.0,272.5,Junior 19-23,F,SBD
1,72,Malene Joensen,Raw,Bergen SK,70.35,148,155,160,160.0,82.5,-85,-85,82.5,150,157.5,-162.5,157.5,400,Junior 19-23,F,SBD
2,72,Veronika Kvalsvik,Raw,Odin SK,71.56,105,112.5,117.5,117.5,60,-65,67.5,67.5,117.5,125,132.5,132.5,317.5,Junior 19-23,F,SBD
1,84,Helene Hovland Hellebø,Raw,Sogndal IL,76.94,117.5,125,-130,125.0,70,75,80,80.0,125,135,140,140.0,345,Junior 19-23,F,SBD
1,57,Thea Sætre Bergseth,Raw,Stryn Turn & Idrettslag Styrkeløftgruppa,55.63,102.5,110,115,115.0,75,-80,80,80.0,105,115,120,120.0,315,Open,F,SBD
2,57,Sara Havnes Løvaas,Raw,Bergen SK,55.92,100,107.5,-110,107.5,55,-57.5,57.5,57.5,110,117.5,125,125.0,290,Open,F,SBD
3,57,Nicoline Giller,Raw,Bergen SK,55.42,85,90,-95,90.0,55,57.5,60,60.0,110,120,122.5,122.5,272.5,Open,F,SBD
1,63,Signe Elisabeth Belden,Raw,Stryn Turn & Idrettslag Styrkeløftgruppa,62.55,150,-155,155,155.0,85,87.5,90,90.0,155,162.5,170,170.0,415,Open,F,SBD
2,63,Monica S. Rasmussen,Raw,Bryggen SK,62.27,142.5,153,-155.5,153.0,67.5,70,-72.5,70.0,135,145,152.5,152.5,375.5,Open,F,SBD
3,63,Maiken Gudmestad,Raw,Odin SK,61.91,117.5,122.5,-127.5,122.5,55,57.5,60,60.0,127.5,135,142.5,142.5,325,Open,F,SBD
4,63,Renathe Iren Sperrevik,Raw,Odin SK,59.49,95,102.5,107.5,107.5,57.5,60,-62.5,60.0,110,122.5,130,130.0,297.5,Open,F,SBD
1,72,Isabel Carina Nakken Cloin,Raw,Bergen SK,71.73,150,-160,160,160.0,82.5,85,-87.5,85.0,165,175,,175.0,420,Open,F,SBD
2,72,Janne Kreuter Bruhn-Henriksen,Raw,Stryn Turn & Idrettslag Styrkeløftgruppa,69.09,90,97.5,102.5,102.5,70,-72.5,-72.5,70.0,115,122.5,130,130.0,302.5,Open,F,SBD
1,84,Karen Tvedt,Raw,Bergen SK,83.58,167.5,-175.5,175.5,175.5,80,85,87.5,87.5,167.5,175,,175.0,438,Open,F,SBD
2,84,Anne Sivertsen,Raw,Bergen SK,75.51,120,130,-135,130.0,60,62.5,-65,62.5,150,160,-165,160.0,352.5,Open,F,SBD
3,84,Mariann Dale,Raw,Bergen SK,75.84,110,120,-130,120.0,62.5,65,67.5,67.5,140,150,160,160.0,347.5,Open,F,SBD
4,84,Heidi Jeanette Eriksen,Raw,Odin SK,72.64,110,115,120,120.0,45,50,-55,50.0,110,117.5,-130,117.5,287.5,Open,F,SBD
5,84,Stine Bakken,Raw,Odin SK,73.43,100,105,-110,105.0,52.5,57.5,-60,57.5,112.5,117.5,-125,117.5,280,Open,F,SBD
6,84,Jeanette A. Fagerlid,Raw,Bjørgvin SK,76.20,70,80,-85,80.0,60,67.5,72.5,72.5,105,110,115,115.0,267.5,Open,F,SBD
1,84+,Anne Sofie Skålvik,Raw,Bergen SK,84.78,105,115,122.5,122.5,55,57.5,60,60.0,120,130,137.5,137.5,320,Open,F,SBD
1,84,Wenche Bratten Myking,Raw,Bergen SK,81.74,-100,105,110,110.0,60,62.5,-65,62.5,130,145,150,150.0,322.5,Master 50-59,F,SBD
2,84,Anne Hellem,Raw,Bergen SK,83.95,97.5,102.5,107.5,107.5,55,57.5,60,60.0,140,145,150,150.0,317.5,Master 50-59,F,SBD
1,52,Angela Maria Jansens Torheim,Raw,Bergen SK,50.78,58,60.5,65.5,65.5,35,38,-40.5,38.0,63,70.5,75.5,75.5,179,Master 60-69,F,SBD
1,72,Anne Lise Sæthre,Raw,Bergen SK,63.46,55,60,62.5,62.5,37.5,40,42.5,42.5,73.5,77.5,80,80.0,185,Master 60-69,F,SBD
1,63,Unni Olsen,Raw,Bergen SK,61.93,35,37.5,40,40.0,33,35,37.5,37.5,53,60.5,65,65.0,142.5,Master +70,F,SBD
1,66,Sebastian Bruvik,Raw,Bergen SK,65.90,160,169,175,175.0,100,108.5,-110,108.5,170,185.5,201,201.0,484.5,Teen 14-18,M,SBD
1,74,Einar Naveen Møen,Raw,Bergen SK,73.30,90,95,-105,95.0,65,70,-72.5,70.0,105,-110,-110,105.0,270,Teen 14-18,M,SBD
1,83,Martinn Vik Johansen,Raw,Bergen SK,78.80,140,160,175,175.0,-85,85,92.5,92.5,180,200,212.5,212.5,480,Teen 14-18,M,SBD
2,83,Morten Ness,Raw,Bergen SK,81.80,140,155,165,165.0,95,105,107.5,107.5,180,192.5,-207.5,192.5,465,Teen 14-18,M,SBD
3,83,Ruben Leganger Solsvik,Raw,Bjørgvin SK,80.30,95,102.5,110,110.0,-60,60,70,70.0,100,110,120,120.0,300,Teen 14-18,M,SBD
1,93,Levi Breivik,Raw,Bergen SK,88.65,140,-150,155,155.0,100,105,-110,105.0,180,190,-200,190.0,450,Teen 14-18,M,SBD
2,93,Aleksander Vold,Raw,Bergen SK,84.35,120,130,140,140.0,77.5,80,-85,80.0,-160,-160,160,160.0,380,Teen 14-18,M,SBD
1,105,Bendik Skønberg,Raw,Bergen SK,93.50,120,140,,140.0,75,80,-85,80.0,150,165,180,180.0,400,Teen 14-18,M,SBD
1,83,Mads Didrik Wickmann,Raw,Sogndal IL,82.24,-175,180,192.5,192.5,125,130,135,135.0,200,215,222.5,222.5,550,Junior 19-23,M,SBD
1,105,Arve Lingjerde,Raw,Sogndal IL,100.53,185,195,202.5,202.5,137.5,142.5,-145,142.5,230,242.5,260,260.0,605,Junior 19-23,M,SBD
2,105,Sigurd Marheim Watten,Raw,Sogndal IL,102.40,180,195,205,205.0,117.5,125,130,130.0,195,215,-220,215.0,550,Junior 19-23,M,SBD
1,74,Johnny Morlandstø,Raw,Bergen SK,73.30,170,-180,180,180.0,102.5,107.5,112.5,112.5,180,200,-207.5,200.0,492.5,Open,M,SBD
1,83,Yngve Hopen,Raw,Odin SK,74.70,190,195,200,200.0,115,120,122.5,122.5,240,250,260,260.0,582.5,Open,M,SBD
2,83,Petter Magnussen,Raw,Bergen SK,80.40,155,162.5,170,170.0,110,117.5,-122.5,117.5,200,215,-230,215.0,502.5,Open,M,SBD
1,93,Toni Johannessen Amengual,Raw,Bergen SK,91.80,255,-276,,255.0,160,167.5,-175,167.5,285,308.5,-318.5,308.5,731,Open,M,SBD
2,93,Erlend Fikse,Raw,Bjørgvin SK,92.80,210,220,230,230.0,115,125,-127.5,125.0,215,230,-240,230.0,585,Open,M,SBD
3,93,Arne-Martin Svendsen Brattsti,Raw,Odin SK,90.70,192.5,-202.5,202.5,202.5,135,140,145,145.0,200,210,215,215.0,562.5,Open,M,SBD
4,93,Sigurd Andersen,Raw,Atlas SK,89.30,180,190,-200,190.0,120,130,-132.5,130.0,220,230,-242.5,230.0,550,Open,M,SBD
5,93,Kristian Kavli,Raw,Odin SK,91.70,175,185,195,195.0,122.5,130,137.5,137.5,195,215,-220,215.0,547.5,Open,M,SBD
6,93,Erlend Nygård,Raw,Bjørgvin SK,88.10,160,175,185,185.0,105,112.5,120,120.0,190,200,210,210.0,515,Open,M,SBD
1,105,Torgeir Særsten,Raw,Odin SK,98.50,180,195,205,205.0,140,147.5,157.5,157.5,205,215,230,230.0,592.5,Open,M,SBD
2,105,Henrik Solheim Sanden,Raw,Bergen SK,101.50,160,175,-180,175.0,120,130,-137.5,130.0,180,200,-210,200.0,505,Open,M,SBD
1,120,Even Bless Liland,Raw,Odin SK,119.60,265,275,280,280.0,205,210,212.5,212.5,290,312.5,-325,312.5,805,Open,M,SBD
2,120,Inge Audun Kjoberg,Raw,Sogndal IL,112.30,240,252.5,257.5,257.5,162.5,167.5,170,170.0,280,-305,-305,280.0,707.5,Open,M,SBD
3,120,Hans Marius Liabø,Raw,Odin SK,119.10,210,225,235,235.0,155,165,172.5,172.5,250,275,292.5,292.5,700,Open,M,SBD
4,120,Stian Solhaug Stor-Re,Raw,Odin SK,119.60,215,230,240,240.0,135,142.5,145,145.0,235,252.5,270,270.0,655,Open,M,SBD
1,83,Alf Henrik Dahle,Raw,Bjørgvin SK,81.46,150,155,-162.5,155.0,105,110,-112.5,110.0,170,180,-190,180.0,445,Master 40-49,M,SBD
1,93,Frank I. Rydheim,Raw,Bergen SK,92.26,230,240.5,-250,240.5,140,150,155,155.0,250,260,-273,260.0,655.5,Master 40-49,M,SBD
2,93,Nils Harald Ekerhovd,Raw,Bjørgvin SK,92.68,185,195,202.5,202.5,135,140,-142.5,140.0,215,225,235,235.0,577.5,Master 40-49,M,SBD
1,105,Rastislav Siska Simonsen,Raw,Bjørgvin SK,102.17,190,200,225,225.0,120,125,130,130.0,210,230,240,240.0,595,Master 40-49,M,SBD
2,105,Per Heimseth,Raw,Florø TIF,93.70,165,172.5,180,180.0,120,125,-130,125.0,220,230,232.5,232.5,537.5,Master 40-49,M,SBD
1,120,Ronny Hogne Hagen,Raw,Odin SK,108.60,120,130,135,135.0,72.5,75,80,80.0,160,172.5,180,180.0,395,Master 40-49,M,SBD
1,120+,Ørjan Leirheim,Raw,Odin SK,134.95,240,255,,255.0,185,195,,195.0,-175,175,225,225.0,675,Master 40-49,M,SBD
1,93,Magne Hordvik Olsen,Raw,Bjørgvin SK,89.10,115,122.5,125,125.0,82.5,85,87.5,87.5,140,150,-155,150.0,362.5,Master 50-59,M,SBD
DQ,120,Bård Arve Havnerås,Raw,Bjørgvin SK,115.75,-150,,,,,,,,,,,,,Master 50-59,M,S
G,72,Maria Letnes,Raw,KK-67,70.51,157.5,165,170,170.0,112.5,120,125,125.0,180,-190,190,190.0,485,Open,F,SBD
